<svg width="32" height="35" viewBox="0 0 32 35" fill="none" xmlns="http://www.w3.org/2000/svg">
<path fill-rule="evenodd" clip-rule="evenodd" d="M13.8224 0H10.3668L9.33016 10.3667H2.07337L1.72782 13.8222H8.98461L8.2935 20.7333H0.345555L0 24.1889H7.94794L6.91127 34.5555H10.3668L11.4035 24.1889H18.3145L17.2778 34.5555H20.7334L21.77 24.1889H29.0267L29.3722 20.7333H22.1156L22.8067 13.8222H30.7545L31.1 10.3667H23.1523L24.1889 0H20.7334L19.6967 10.3667H12.7857L13.8224 0ZM12.4402 13.8222L11.7491 20.7333H18.66L19.3512 13.8222H12.4402Z" fill="#3A3A3A"/>
</svg>
