<svg width="39" height="39" viewBox="0 0 39 39" fill="none" xmlns="http://www.w3.org/2000/svg">
<path fill-rule="evenodd" clip-rule="evenodd" d="M19.5 8.02669L34.125 22.6517V32.9062C34.125 33.8759 33.7398 34.8059 33.0541 35.4916C32.3684 36.1773 31.4384 36.5625 30.4688 36.5625H8.53125C7.56155 36.5625 6.63157 36.1773 5.94589 35.4916C5.26021 34.8059 4.875 33.8759 4.875 32.9062V22.6517L19.5 8.02669ZM31.6875 6.09375V14.625L26.8125 9.75V6.09375C26.8125 5.77052 26.9409 5.46052 27.1695 5.23196C27.398 5.0034 27.708 4.875 28.0312 4.875H30.4688C30.792 4.875 31.102 5.0034 31.3305 5.23196C31.5591 5.46052 31.6875 5.77052 31.6875 6.09375Z" fill="#3A3A3A"/>
<path fill-rule="evenodd" clip-rule="evenodd" d="M17.7768 3.65605C18.2339 3.19909 18.8537 2.94238 19.5001 2.94238C20.1464 2.94238 20.7663 3.19909 21.2234 3.65605L37.4254 19.8557C37.6543 20.0845 37.7829 20.3949 37.7829 20.7185C37.7829 21.0422 37.6543 21.3526 37.4254 21.5814C37.1966 21.8103 36.8862 21.9388 36.5626 21.9388C36.2389 21.9388 35.9285 21.8103 35.6997 21.5814L19.5001 5.37936L3.30045 21.5814C3.0716 21.8103 2.76122 21.9388 2.43757 21.9388C2.11393 21.9388 1.80355 21.8103 1.5747 21.5814C1.34585 21.3526 1.21729 21.0422 1.21729 20.7185C1.21729 20.3949 1.34585 20.0845 1.5747 19.8557L17.7768 3.65605Z" fill="#3A3A3A"/>
</svg>
